st558-project-2
…
cat("\n")

cat("2-way Contingency Table for State and Postal Code ", "\n")

2-way Contingency Table for State and Postal Code  

store_dat |>
  group_by(State, Postal_Code) |>
  summarize(count = n())

`summarise()` has grouped output by 'State'. You can override using the
`.groups` argument.

# A tibble: 631 × 3
# Groups:   State [49]
   State Postal_Code count
   <chr> <chr>       <int>
 1 AL    35244           4
 2 AL    35401           2
 3 AL    35601          13
 4 AL    35630           5
 5 AL    35810          10
 6 AL    36116          10
 7 AL    36608          11
 8 AL    36830           6
 9 AR    71603           2
10 AR    71854           2
# ℹ 621 more rows
…
cat("Sales by State ", "\n")

Sales by State  

store_dat |> 
  select(Sales, State) |> 
  group_by(State) |>
  summarize(min = min(Sales),
            q1 = quantile(Sales, 0.25),
            median = median(Sales),
            mean = mean(Sales),
            q3 = quantile(Sales, 0.75),
            max = max(Sales))

# A tibble: 49 × 7
   State   min    q1 median  mean    q3    max
   <chr> <dbl> <dbl>  <dbl> <dbl> <dbl>  <dbl>
 1 AL     3.62  19.6   71.0  320. 359.   3040 
 2 AR     4.3   19.8   54.4  195. 210.   1794.
 3 AZ     1.41  15.2   61.5  158. 202.   1880.
 4 CA     0.99  19.8   61.0  229. 225.   8188.
 5 CO     1.08  15.2   51.0  176. 175.   2550.
 6 CT     3.52  14.7   50    163. 182.   1133.
 7 DC     9.64  20.3   35.8  287.  41.0  1380.
 8 DE     3.38  20.0   67.0  286. 203.  10500.
 9 FL     1.17  12.0   41.5  234. 183.  22638.
10 GA     1.78  19.2   71.0  267. 250.   6355.
# ℹ 39 more rows
…
